{
  "MQTT": {
    "HOST": "192.168.5.179",
    "PORT": 1883,
    "USERNAME": "admin",
    "PASSWORD": "a123456789",
    "NODENAME": "yd_meter_detect_recog"
  },
  "FTPS": {
    "HOST": "192.168.5.179",
    "PORT": 21,
    "USERNAME": "ydrobot",
    "PASSWORD": "123qweasd",
    "implicit_flag": 1,
    "debugLevel": 0,
    "passive": 0,
    "protect": 1,
    "login_custom": 1,
    "prefix": "/home/vsftpd/ydrobot"
  },
  "XAVIER": {
    "HOST": "10.168.1.35",
    "PORT": 22,
    "USERNAME": "ydrobot",
    "PASSWORD": "123qweasd",
    "project_path": ""
  },
  "TOPIC": {
    "TASK": "/ydcloud/pt/watchpoint/result",
    "RESULT": "/ydcloud/gw/gateway_id/robot/point/result/up"
  },
  "INNERTOPIC": {
    "TASK": "/ydrobot/ai_inner/num_task",
    "RESULT": "/ydrobot/ai_inner/num_result"
  },
  "algorithm": {
    "detect": "yolov4",
    "box_filter": 1,
    "detect_thresh": 0.25,
    "detect_hier_thresh": 0.5,
    "detect_nms": 0.45,
    "detect_multi_scale_flag": 1,
    "detect_iou_thresh": 0.75,
    "segment": "maskrcnn_tf1",
    "ocr": "paddleocr",
    "ocr_extend_scale" : 1.5,
    "ocr_backgroud_thresh": 180,
    "ocr_backgroud_count_thresh": 0.01
  },
  "TESTMODE": 0,
  "single_ocr_test": 1,
  "single_ocr_test_dir": 1,
  "test_type": "watch"
}
